<svg xmlns="http://www.w3.org/2000/svg" width="15.725" height="15.725" viewBox="0 0 15.725 15.725">
  <g id="Group_1" data-name="Group 1" transform="translate(-328.475 -277.867)">
    <g id="push-pin_1_" data-name="push-pin (1)" transform="translate(328.475 277.867)" opacity="0.41">
      <path id="Path_1538" data-name="Path 1538" d="M82.179,7.642l5.075,5.075a.812.812,0,0,0,1.386-.574V9.5l4.87-4.87.406.406a.574.574,0,0,0,.812-.812L90.668.169a.574.574,0,0,0-.812.812l.406.406-4.87,4.87h-2.64a.812.812,0,0,0-.574,1.386Zm0,0" transform="translate(-79.17)" fill="#ea1b64"/>
      <path id="Path_1539" data-name="Path 1539" d="M5.952,289.781l-4.081,4.081A4.027,4.027,0,0,1,0,294.921a4.027,4.027,0,0,1,1.059-1.871l4.081-4.081Zm0,0" transform="translate(0 -279.195)" fill="#1f1f41"/>
    </g>
  </g>
</svg>
