<svg xmlns="http://www.w3.org/2000/svg" xmlns:xlink="http://www.w3.org/1999/xlink" width="42.885" height="42.885" viewBox="0 0 42.885 42.885">
  <defs>
    <clipPath id="clip-path">
      <rect id="_4_Background_Mask_" data-name="4 (Background/Mask)" width="42.885" height="42.885" fill="none"/>
    </clipPath>
  </defs>
  <g id="_4" data-name="4" transform="translate(0.239)">
    <rect id="_4_Background_Mask_2" data-name="4 (Background/Mask)" width="42.885" height="42.885" transform="translate(-0.239)" fill="none"/>
    <g id="_4-2" data-name="4" transform="translate(-0.239)" clip-path="url(#clip-path)">
      <rect id="Rectangle_11" data-name="Rectangle 11" width="16.082" height="10.721" rx="1" transform="translate(3.574 3.574)" fill="#0a2360"/>
      <rect id="Rectangle_14" data-name="Rectangle 14" width="16.082" height="10.721" rx="1" transform="translate(23.229 28.59)" fill="#0a2360"/>
      <rect id="Rectangle_13" data-name="Rectangle 13" width="16.082" height="21.442" rx="1" transform="translate(3.574 17.869)" fill="#0a2360"/>
      <rect id="Rectangle_15" data-name="Rectangle 15" width="16.082" height="21.442" rx="1" transform="translate(23.229 3.574)" fill="#0a2360"/>
    </g>
  </g>
</svg>
